Model type,experiment design,Purpose
Neural Network,smaller network: reduce input neuron from 261 to a smaller number,to account for potential redundency in the input variables
Neural Network,larger netowk: more layers,
Neural Network,evaluate model without data preprocessing,
Neural Network,evaluate model with data preproprocessing,
Neural Network,"use differnet optimizer: adam, rmsprp, sgd",
Neural Network,"use differnet initilizer: glorot_unifirm, normal, uniform",
Neural Network,"epochs: 50, 100, 200, 500, 1000",
Neural Network,"batches: 5, 10, 20",
Neural Network,dropout on each layer for large networks (0.2) along with weight constraint (max 3~5),
Neural Network,reduce learning rate: LearningRateScheduler,
Neural Network,Experiment with different learning rate scheduler,
